{
  "comments": {
    "lineComment": "%"
  },
  // symbols used as brackets
  "brackets": [
    {"open": "(", "close": ")"}, // Literal String
    {"open": "<~", "close": "~>"}, // ASCII Base-85 String
    {"open": "<", "close": ">"}, // Hexadecimal String
    {"open": "{", "close": "}"}, // Arrays
    {"open": "[", "close": "]"} // Procedures
  ],
  // symbols that are auto closed when typing
  "autoClosingPairs": [
    {"open": "(", "close": ")", "notIn": ["string.other.base85", "string.other.hexadecimal"]},
    {"open": "<~", "close": "~>", "notIn": ["comment", "string"]},
    {"open": "<", "close": ">", "notIn": ["comment", "string"]},
    {"open": "{", "close": "}"},
    {"open": "[", "close": "]"}
  ],
  // symbols that that can be used to surround a selection
  "surroundingPairs": [
    {"open": "{", "close": "}"},
    {"open": "[", "close": "]"},
    {"open": "(", "close": ")"},
    {"open": "<", "close": ">"},
    {"open": "<", "close": ">"},
    {"open": "\"", "close": "\""},
    {"open": "'", "close": "'"}
  ],
}
